{
    "story_tags": [
        {
            "type": "user",
            "offset": 0,
            "name": "Alexander Korsak",
            "length": 16,
            "id": "1264937113"
        }
    ],
    "picture": "https://external.xx.fbcdn.net/safe_image.php?d=AQCOC8YDr-OsjxVO&w=130&h=130&url=https%3A%2F%2Fi.ytimg.com%2Fvi%2F2iMT_vj38pI%2Fmaxresdefault.jpg&cfs=1&sx=375&sy=0&sw=1080&sh=1080",
    "name": "|First 3 Hours Female Vocal Dubstep mix 2015",
    "link": "https://www.youtube.com/attribution_link?a=fRkf-0Kan5A&u=%2Fwatch%3Fv%3D2iMT_vj38pI%26feature%3Dshare",
    "likes": {
        "summary": {
            "total_count": 2,
            "has_liked": false,
            "can_like": true
        },
        "paging": {
            "next": "https://graph.facebook.com/v2.6/1264937113_10208594264555133/likes?access_token=EAAHHZBahuow0BAJ4caTvNH12Yi1qGWrSrgg3HLtpQ35uZBBcBEcXRiKtFTpRgJpWRu2rGlxhilnl8TR7iBPjGykhSy6V6R6nSJfWY3FXywiWZANoqZA6Y4g0mcDtxZASh0nVkme2QQF3aUpiEWbeZCqbE8TcNWLjLVg8MkhwWLDgZDZD&summary=true&limit=1&after=MTAyMDI1NTQxNDg3NDg4MjYZD",
            "cursors": {
                "before": "MTAyMDI1NTQxNDg3NDg4MjYZD",
                "after": "MTAyMDI1NTQxNDg3NDg4MjYZD"
            }
        },
        "data": [
            {
                "name": "Andrey Frolic Lisovskiy",
                "id": "10202554148748826"
            }
        ]
    },
    "id": "1264937113_10208594264555133",
    "from": {
        "name": "Alexander Korsak",
        "id": "1264937113"
    },
    "description": "|First 3 Hours| Female Vocal Dubstep mix 2015 If you like it leave a like and a sup :) !",
    "created_time": "2016-03-30T10:56:45+0000",
    "comments": {
        "summary": {
            "total_count": 1,
            "order": "chronological",
            "can_comment": true
        },
        "paging": {
            "cursors": {
                "before": "WTI5dGJXVnVkRjlqZAFhKemIzSTZANVEF5TURnMU9UazRPVGMwTVRVNU5URTZANVFExT1RNMk9EWXpPQT09",
                "after": "WTI5dGJXVnVkRjlqZAFhKemIzSTZANVEF5TURnMU9UazRPVGMwTVRVNU5URTZANVFExT1RNMk9EWXpPQT09"
            }
        },
        "data": [
            {
                "message": "Рыжих любишь?)",
                "id": "10208594264555133_10208599897415951",
                "from": {
                    "name": "Anna Korsak",
                    "id": "1025302206"
                },
                "created_time": "2016-03-30T20:10:38+0000"
            }
        ]
    },
    "application": {
        "namespace": "yt-fb-app",
        "name": "YouTube",
        "link": "http://www.youtube.com/?feature=fbr",
        "id": "87741124305",
        "category": "Utilities"
    }
}
